{
  "appId": "app.caina.devteam",
  "appName": "meuBairroApp",
  "bundledWebRuntime": false,
  "npmClient": "npm",
  "webDir": "www",
  "cordova": {},
  "server": {
    "allowNavigation": [
      "*api.whatsapp.com",
      "api.wahtsapp.com"
    ]
  },
  "ios": {
    "cordovaLinkerFlags": ["-ObjC"]
  }
}
